%YAML 1.1
%TAG !u! tag:unity3d.com,2011:
--- !u!114 &11400000
MonoBehaviour:
  m_ObjectHideFlags: 0
  m_CorrespondingSourceObject: {fileID: 0}
  m_PrefabInstance: {fileID: 0}
  m_PrefabAsset: {fileID: 0}
  m_GameObject: {fileID: 0}
  m_Enabled: 1
  m_EditorHideFlags: 0
  m_Script: {fileID: 11500000, guid: 7612acbc1a4a4ed0afa5f4ccbe42bee4, type: 3}
  m_Name: New MixedRealityToolkitConfigurationProfile
  m_EditorClassIdentifier: 
  isCustomProfile: 1
  targetExperienceScale: 3
  enableCameraSystem: 1
  cameraProfile: {fileID: 11400000, guid: 6a6ea8e8cca71344ba773e4317537580, type: 2}
  cameraSystemType:
    reference: Microsoft.MixedReality.Toolkit.CameraSystem.MixedRealityCameraSystem,
      Microsoft.MixedReality.Toolkit.Services.CameraSystem
  enableInputSystem: 1
  inputSystemProfile: {fileID: 11400000, guid: 9662f7ae6824906419ef1258126a9f7c, type: 2}
  inputSystemType:
    reference: Microsoft.MixedReality.Toolkit.Input.MixedRealityInputSystem, Microsoft.MixedReality.Toolkit.Services.InputSystem
  enableBoundarySystem: 1
  boundarySystemType:
    reference: Microsoft.MixedReality.Toolkit.XRSDK.XRSDKBoundarySystem, Microsoft.MixedReality.Toolkit.Providers.XRSDK
  boundaryVisualizationProfile: {fileID: 11400000, guid: 6d28cce596b44bd3897ca86f8b24e076, type: 2}
  enableTeleportSystem: 1
  teleportSystemType:
    reference: Microsoft.MixedReality.Toolkit.Teleport.MixedRealityTeleportSystem,
      Microsoft.MixedReality.Toolkit.Services.TeleportSystem
  enableSpatialAwarenessSystem: 1
  spatialAwarenessSystemType:
    reference: Microsoft.MixedReality.Toolkit.SpatialAwareness.MixedRealitySpatialAwarenessSystem,
      Microsoft.MixedReality.Toolkit.Services.SpatialAwarenessSystem
  spatialAwarenessSystemProfile: {fileID: 11400000, guid: 2f8932c6c78438e4d9bff23af5c710be, type: 2}
  diagnosticsSystemProfile: {fileID: 11400000, guid: 478436bd1083882479a52d067e98e537, type: 2}
  enableDiagnosticsSystem: 0
  diagnosticsSystemType:
    reference: Microsoft.MixedReality.Toolkit.Diagnostics.MixedRealityDiagnosticsSystem,
      Microsoft.MixedReality.Toolkit.Services.DiagnosticsSystem
  sceneSystemProfile: {fileID: 11400000, guid: 069efa41032a317409790a6a08435311, type: 2}
  enableSceneSystem: 0
  sceneSystemType:
    reference: Microsoft.MixedReality.Toolkit.SceneSystem.MixedRealitySceneSystem,
      Microsoft.MixedReality.Toolkit.Services.SceneSystem
  registeredServiceProvidersProfile: {fileID: 11400000, guid: efbaf6ea540c69f4fb75415a5d145a53, type: 2}
  useServiceInspectors: 0
  renderDepthBuffer: 0
  enableVerboseLogging: 0
