%YAML 1.1
%TAG !u! tag:unity3d.com,2011:
--- !u!114 &11400000
MonoBehaviour:
  m_ObjectHideFlags: 0
  m_CorrespondingSourceObject: {fileID: 0}
  m_PrefabInstance: {fileID: 0}
  m_PrefabAsset: {fileID: 0}
  m_GameObject: {fileID: 0}
  m_Enabled: 1
  m_EditorHideFlags: 0
  m_Script: {fileID: 11500000, guid: 7554812f08ec49e694a8d9d4ee235a9c, type: 3}
  m_Name: New MixedRealityGesturesProfile 1
  m_EditorClassIdentifier: 
  isCustomProfile: 1
  manipulationGestures: 12
  navigationGestures: 112
  useRailsNavigation: 0
  railsNavigationGestures: 896
  windowsGestureAutoStart: 0
  gestures:
  - description: Hold
    gestureType: 1
    action:
      id: 14
      description: Rotate
      axisConstraint: 2
  - description: Navigation
    gestureType: 2
    action:
      id: 10
      description: Navigation Action
      axisConstraint: 0
  - description: Manipulation
    gestureType: 3
    action:
      id: 9
      description: Manipulate Action
      axisConstraint: 0
  - description: Select
    gestureType: 4
    action:
      id: 1
      description: Select
      axisConstraint: 2
